name;info;foto;url;capital;latitud;longitud
Afghanistan;Población: 37.17M;https://www.worldometers.info/img/flags/af-flag.gif;https://www.youtube.com/embed/mjScCkL_ayw;Capital: Kabul;33.742863;65.451926
Albania;Población: 2.846M;https://www.worldometers.info/img/flags/al-flag.gif;https://www.youtube.com/embed/60ItGKXQqGY;Capital: Tirana;41.040096;19.977519
Alemania;Población: 83.02;https://www.worldometers.info/img/flags/gm-flag.gif;https://www.youtube.com/embed/YYrXbV6hp7g;Capital: Berlín;51.172639;10.933743
Andorra;Población: 77.006;https://www.worldometers.info/img/flags/an-flag.gif;https://www.youtube.com/embed/vOKje3fpnO4;Capital: Andorra la Vieja;42.549870;1.636304
Angola;Población: 30.81M;https://www.worldometers.info/img/flags/ao-flag.gif;https://www.youtube.com/embed/KteSqIjhvjY;Capital: Luanda;-12.427352;17.609063
Antigua y Barbuda;Población: 96.286;https://www.worldometers.info/img/flags/ac-flag.gif;https://www.youtube.com/embed/NVjwnXxT57c;Capital: Saint John;17.624362;-61.779533
Argelia;Población: 42.3M;https://www.worldometers.info/img/flags/ag-flag.gif;https://www.youtube.com/embed/sLy650hukPc;Capital: Argel;28.303861;2.841171
Arabia Saudita;Poblacion: 33.7;https://www.worldometers.info/img/flags/sa-flag.gif;https://www.youtube.com/embed/xbcFnZWs5eA;Capital: Riad;23.934556;44.439591
Argentina;Población: 44.49M;https://www.worldometers.info/img/flags/ar-flag.gif;https://www.youtube.com/embed/JSqCpMfPUho;Capital: Buenos Aires;-35.137275;-65.645650
Armenia;Población: 2.965M;https://www.worldometers.info/img/flags/am-flag.gif;https://www.youtube.com/embed/XAkO488S-Lg;Capital: Ereván;40.316986;44.573266
Australia;Población: 24.99M;https://www.worldometers.info/img/flags/as-flag.gif;https://www.youtube.com/embed/xnfcB3iv7xI;Capital: Canbera;-24.786980;133.983729
Austria;Población: 8.859M;https://www.worldometers.info/img/flags/au-flag.gif;https://www.youtube.com/embed/0pAZM2hgWkY;Capital: Viena;47.563532;14.179068
Azerbaiyán;Población: 9.981M;https://www.worldometers.info/img/flags/aj-flag.gif;https://www.youtube.com/embed/SLlI8hM6btw;Capital: Bakú;40.296804;47.972107
Bahamas;Población: 385.640;https://www.worldometers.info/img/flags/bf-flag.gif;https://www.youtube.com/embed/-2MofOoG-OE;Capital: Nasáu;24.747603;-77.947267
Bahréin;Población: 1.569M;https://www.worldometers.info/img/flags/ba-flag.gif;https://www.youtube.com/embed/XmUkaYcsnsc;Capital: Manama;26.039433;50.557321
Bangladesh;Población: 1.614M;https://www.worldometers.info/img/flags/bg-flag.gif;https://www.youtube.com/embed/f_vTfbU7JKo;Capital: Daca;24.214030;90.648929
Barbados;Población: 286.641;https://www.worldometers.info/img/flags/bb-flag.gif;https://www.youtube.com/embed/KStk0fJ9G48;Capital: Bridgetown;13.169639;-59.550138
Belgica;Población: 11.46M;https://www.worldometers.info/img/flags/be-flag.gif;https://www.youtube.com/embed/jFA-PdqfbiM;Capital: ‎Bruselas;50.540692;4.679905
Belice;Población: 383.071;https://www.worldometers.info/img/flags/bh-flag.gif;https://www.youtube.com/embed/TQPUqb0QSr4;Capital: Belmopán;16.780662;-88.616162
Benin;Población: 11.49M;https://www.worldometers.info/img/flags/bn-flag.gif;https://www.youtube.com/embed/JDzjadRDpNc;Capital: Porto Novo;9.657936;2.437722
Bielorrusia;Población: 9.485M;https://www.worldometers.info/img/flags/bo-flag.gif;https://www.youtube.com/embed/AUX_ixwu4DA;Capital: Minsk;53.240397;27.469446
Bolivia;Población: 11.35M;https://www.worldometers.info/img/flags/bl-flag.gif;https://www.youtube.com/embed/gvasn6xcqdE;Capital: La paz;-16.804977;-64.245649
Bosnia y Herzegovina;Población: 3.324M;https://www.worldometers.info/img/flags/bk-flag.gif;https://www.youtube.com/embed/OI_dm7DSM0g;Capital: Sarajevo;44.602869;17.671127
Botsuana;Población: 2.254M;https://www.worldometers.info/img/flags/bc-flag.gif;https://www.youtube.com/embed/qm8aKzmCTVg;Capital: Gaborone;-22.199464;23.904299;
Brasil;Población: 209.5M;https://www.worldometers.info/img/flags/br-flag.gif;https://www.youtube.com/embed/vSDqD_G4_ms;Capital: Brasilia;-8.703065;-55.372287
Brunéi;Población: 428.962;https://www.worldometers.info/img/flags/bx-flag.gif;https://www.youtube.com/embed/V4P9nRYTms0;Capital: Bandar Seri Begawan;4.503367;114.604026
Bulgaria;Población: 7M;https://www.worldometers.info/img/flags/bu-flag.gif;https://www.youtube.com/embed/l74zyfV37RQ;Capital: Sofia;42.574173;25.013943
Burkina Faso;Población: 19.75M;https://www.worldometers.info/img/flags/uv-flag.gif;https://www.youtube.com/embed/rYUUVcs0W3Y;Capital: Uagadugú;12.420602;-1.997325
Burundi;Población: 11.18M;https://www.worldometers.info/img/flags/by-flag.gif;https://www.youtube.com/embed/2-PHkXde8WE;Capital: Gitega;-3.355980;29.836544
Bután;Población: 754.394;https://www.worldometers.info/img/flags/bt-flag.gif;https://www.youtube.com/embed/ipC59ryNlpk;Capital: Timbu;27.396879;90.473614
Cabo Verde;Población: 543.767;https://www.worldometers.info/img/flags/cv-flag.gif;https://www.youtube.com/embed/r1s9-ZtjALQ;Capital: Praia;14.934256;-23.535057
Camboya;Población: 16.25M;https://www.worldometers.info/img/flags/cb-flag.gif;https://www.youtube.com/embed/YDOjLfWmC0s;Capital: Nom Pen;12.747907;104.493783
Camerún;Población: 25.22M;https://www.worldometers.info/img/flags/cm-flag.gif;https://www.youtube.com/embed/R1sWwLxe7VQ;Capital: Yaundé;5.753680;12.453436
Canadá;Población: 37.59M;https://www.worldometers.info/img/flags/ca-flag.gif;https://www.youtube.com/embed/uDzzMtO2rZg;Capital: Ottawa;57.421359;-102.269529
Catar;Población: 2.782M;https://www.worldometers.info/img/flags/qa-flag.gif;https://www.youtube.com/embed/sj3QnNOxb7g;Capital: Doha;25.300141;51.178589
Chad;Población: 15.48M;https://www.worldometers.info/img/flags/cd-flag.gif;https://www.youtube.com/embed/W6eaVnMlbI0;Capital: Yamena;14.626311;18.482719
Chile;Población: 18.73M;https://www.worldometers.info/img/flags/ci-flag.gif;https://www.youtube.com/embed/SvkVX99nBUc;Capital: Santiago de Chile;-33.494012;-70.607805
China;Población: 1.393KM;https://www.worldometers.info/img/flags/ch-flag.gif;https://www.youtube.com/embed/wqgZw4GVax8;Capital: Pekín;34.775994;103.274995
Chipre;Población: 1.17M;https://www.worldometers.info/img/flags/cy-flag.gif;https://www.youtube.com/embed/EthlIFYV6og;Capital: Nicosia;35.059666;33.175108
Ciudad del Vaticano;Población: 825;https://www.worldometers.info/img/flags/vt-flag.gif;https://www.youtube.com/embed/bNljDLSiUTs;Capital: Ciudad del Vaticano;41.902118;12.453493
Colombia;Población: 49.65M;https://www.worldometers.info/img/flags/co-flag.gif;https://www.youtube.com/embed/igfCgcfq170;Capital: Bogotá;3.579599;-73.457621
Comoras;Población: 832.322;https://www.worldometers.info/img/flags/cn-flag.gif;https://www.youtube.com/embed/6N2-uQrvNls;Capital: Moroni;-11.649748;43.331260
Corea del Norte;Población: 25.55M;https://www.worldometers.info/img/flags/kn-flag.gif;https://www.youtube.com/embed/F4fbSbjAjT8;Capital: Pionyang;40.152886;127.224193
Corea del Sur;Población: 51.64M;https://www.worldometers.info/img/flags/ks-flag.gif;https://www.youtube.com/embed/skMsY62RQOQ;Capital: Seúl;36.267931;127.978814
Costa de Marfil;Población: 25.07M;https://www.worldometers.info/img/flags/iv-flag.gif;https://www.youtube.com/embed/rxrZhRD6G08;Capital: Yamusukro;7.776633;-5.430217
Costa Rica;Población: 4.999M;https://www.worldometers.info/img/flags/cs-flag.gif;https://www.youtube.com/embed/kE-fWMkYNEg;Capital: San José;10.410935;-83.889307
Croacia;Población: 4.076M;https://www.worldometers.info/img/flags/hr-flag.gif;https://www.youtube.com/embed/xDyqYTzB6PQ;Capital: Zagreb;45.087906;15.031313
Cuba;Población: 11.34M;https://www.worldometers.info/img/flags/cu-flag.gif;https://www.youtube.com/embed/Ngu3F429b4g;Capital: La Habana;21.582004;-78.939914
Dinamarca;Población: 5.806M;https://www.worldometers.info/img/flags/da-flag.gif;https://www.youtube.com/embed/4eJK-A5Gl_4;Capital: Copenhague;55.606321;10.179143
Dominica;Población: 71.625M;https://www.worldometers.info/img/flags/do-flag.gif;https://www.youtube.com/embed/0PqaXiZyn1o;Capital: Roseau;15.437581;-61.329258
Ecuador;Población: 17.08M;https://www.worldometers.info/img/flags/ec-flag.gif;https://www.youtube.com/embed/EgjJEmbwGuk;Capital: Quito;-1.377204;-78.309937
Egipto;Población: 98.42M;https://www.worldometers.info/img/flags/eg-flag.gif;https://www.youtube.com/embed/kipVmOylVyc;Capital: El Cairo;26.599419;29.831598
El Salvador;Población: 6.421M;https://www.worldometers.info/img/flags/es-flag.gif;https://www.youtube.com/embed/UnWzKEO6WnM;Capital: San Salvador;13.700318;-89.260029
Emiratos Árabes Unidos;Población: 9.631M;https://www.worldometers.info/img/flags/ae-flag.gif;https://www.youtube.com/embed/Xa5c_pAug1k;Capital: Abu Dabi;23.896292;53.996830
Eritrea;Población: 3.214M;https://www.worldometers.info/img/flags/er-flag.gif;https://www.youtube.com/embed/8RQC04GQI-0;Capital: Asmara;15.324845;38.730288
Eslovaquia;Población: 5.458M;https://www.worldometers.info/img/flags/lo-flag.gif;https://www.youtube.com/embed/P5Kl8wgg118;Capital: Bratislava;48.744974;19.148620
Eslovenia;Población: 2.081M;https://www.worldometers.info/img/flags/si-flag.gif;https://www.youtube.com/embed/l_52OBnlsBk;Capital: Liubliana;46.031915;14.630636
España;Población: 46.94M;https://www.worldometers.info/img/flags/sp-flag.gif;https://www.youtube.com/embed/zi6VIw2GgkE;Capital: Madrid;39.446281;-3.545263
Estados Unidos;Población: 328.2M;https://www.worldometers.info/img/flags/us-flag.gif;https://www.youtube.com/embed/SEdR9LuyuqU;Capital: Washington D. C.;39.471778;-100.714861
Estonia;Población: 1.329M;https://www.worldometers.info/img/flags/en-flag.gif;https://www.youtube.com/embed/3AuVpNAKbgk;Capital: Tallin;58.726596;25.766199
Etiopía;Población: 109.2M;https://www.worldometers.info/img/flags/et-flag.gif;https://www.youtube.com/embed/BrzZk5RuzUg;Capital: Adís Abeba;8.730747;39.692206
Filipinas;Población: 106.7M;https://www.worldometers.info/img/flags/rp-flag.gif;https://www.youtube.com/embed/P-o2qzL-nHo;Capital: Manila;12.501852;123.332138
Finlandia;Población: 5.518M;https://www.worldometers.info/img/flags/fi-flag.gif;https://www.youtube.com/embed/zHdGDh0H1vs;Capital: Helsinki;62.000282;25.746858
Fiyi;Población: 883.483;https://www.worldometers.info/img/flags/fj-flag.gif;https://www.youtube.com/embed/ngpYgqq07Vo;Capital: Suva;-17.807638;177.974454
Francia;Población: 66.99M;https://www.worldometers.info/img/flags/fr-flag.gif;https://www.youtube.com/embed/buHFjhcq2IE;Capital: París;46.556068;2.155826
Gabón;Población: 2.119M;https://www.worldometers.info/img/flags/gb-flag.gif;https://www.youtube.com/embed/X0KaHfq5iBA;Capital: Libreville;-0.505590;11.756030
Gambia;Población: 2.28M;https://www.worldometers.info/img/flags/ga-flag.gif;https://www.youtube.com/embed/T74DiVRIEWg;Capital: Banjul;13.436374;-15.391655
Georgia;Población: 3.731M;https://www.worldometers.info/img/flags/gg-flag.gif;https://www.youtube.com/embed/J10jQD745jc;Capital: Tiflis;42.144336;43.553401
Ghana;Población: 29.77M;https://www.worldometers.info/img/flags/gh-flag.gif;https://www.youtube.com/embed/a738Q8N7Jxo;Capital: Acra;7.909358;-1.176745
Granada;Población: 919.700;https://www.worldometers.info/img/flags/gj-flag.gif;https://www.youtube.com/embed/rx6OS5OGHOQ;Capital: Saint George;37.177696;-3.598223
Grecia;Población: 10.72M;https://www.worldometers.info/img/flags/gr-flag.gif;https://www.youtube.com/embed/xfDYmr3Rluo;Capital: Atenas;39.515980;22.055502
Guatemala;Población: 17.25M;https://www.worldometers.info/img/flags/gt-flag.gif;https://www.youtube.com/embed/1O8mA565IGg;Capital: Ciudad de Guatemala;15.647916;-90.326028
Guyana;Población: 779.004;https://www.worldometers.info/img/flags/gy-flag.gif;https://www.youtube.com/embed/0EGq5axuyyU;Capital: Georgetown;4.775048;-58.991515
Guinea;Población: 12.41M;https://www.worldometers.info/img/flags/gv-flag.gif;https://www.youtube.com/embed/5ZlkOJV-miw;Capital: Conakri;10.455251;-11.001981
Guinea-Bisáu;Población: 1.874M;https://www.worldometers.info/img/flags/pu-flag.gif;https://www.youtube.com/embed/zQMkCpciuMQ;Capital: Bisáu;12.031893;-15.311981
Guinea Ecuatorial;Población: 1.309M;https://www.worldometers.info/img/flags/ek-flag.gif;https://www.youtube.com/embed/3_pA6qqCcyM;Capital: Malabo;1.659324;10.279728
Haití;Población: 11.12M;https://www.worldometers.info/img/flags/ha-flag.gif;https://www.youtube.com/embed/jCN6Zg1Ri8c;Capital: Puerto Príncipe;18.915806;-72.632515
Honduras;Población: 9.588M;https://www.worldometers.info/img/flags/ho-flag.gif;https://www.youtube.com/embed/OApd-jVirTs;Capital: Tegucigalpa;14.809938;-86.992673
Hungría;Población: 9.773M;https://www.worldometers.info/img/flags/hu-flag.gif;https://www.youtube.com/embed/MSakJEl5m4w;Capital: Budapest;46.997089;19.525210
India;Población: 1.353KM;https://www.worldometers.info/img/flags/in-flag.gif;https://www.youtube.com/embed/wx4EYYfzHoU;Capital: Nueva Delhi;22.874387;79.118734
Indonesia;Población: 267.7M;https://www.worldometers.info/img/flags/id-flag.gif;https://www.youtube.com/embed/4r4wXFTSQ8U;Capital: Yakarta;-4.688580;121.855013
Irak;Población: 38.43M;https://www.worldometers.info/img/flags/iz-flag.gif;https://www.youtube.com/embed/GVfss7bHDjM;Capital: Bagdad;33.084941;42.868890
Irán;Población: 81.8M;https://www.worldometers.info/img/flags/ir-flag.gif;https://www.youtube.com/embed/kIukl44kIzQ;Capital: Teherán;32.345892;54.647202
Irlanda;Población: 4.904M;https://www.worldometers.info/img/flags/ir-flag.gif;https://www.youtube.com/embed/U3ITOXrGSnM;Capital: Dublín;53.145482;-8.317882
Islandia;Población: 364.134;https://www.worldometers.info/img/flags/ic-flag.gif;https://www.youtube.com/embed/8TCDGE5P_Cg;Capital: Reikiavik;64.992513;-18.894914
Islas Marshall;Población: 58.413;https://www.worldometers.info/img/flags/rm-flag.gif;https://www.youtube.com/embed/l-D4EiYMfhk;Capital: Majuro;7.147722;168.805288
Islas Salomón;Población: 652.858;https://www.worldometers.info/img/flags/bp-flag.gif;https://www.youtube.com/embed/syaqW0Jpe4I;Capital: Honiara;-9.849022;160.369137
Israel;Población: 8.884M;https://www.worldometers.info/img/flags/is-flag.gif;https://www.youtube.com/embed/oV9M0vtDmJ8;Capital: Jerusalén;31.010813;34.639695
Italia;Población: 60.36M;https://www.worldometers.info/img/flags/it-flag.gif;https://www.youtube.com/embed/4G2Is0IGzes;Capital: Roma;43.062388;12.599002
Jamaica;Población: 2.935M;https://www.worldometers.info/img/flags/jm-flag.gif;https://www.youtube.com/embed/vBh0Azqkb4I;Capital: Kingston;18.142015;-77.331231
Japón;Población: 126.5M;https://www.worldometers.info/img/flags/ja-flag.gif;https://www.youtube.com/embed/mlESQKFUNfw;Capital: Tokio;36.270016;138.838512
Jordania;Población: 9.956M;https://www.worldometers.info/img/flags/jo-flag.gif;https://www.youtube.com/embed/IX6_0osnteY;Capital: Amán;31.260386;36.669513
Kazajistán;Población: 18.28M;https://www.worldometers.info/img/flags/kz-flag.gif;https://www.youtube.com/embed/0g0zs7QB95c;Capital: Astaná;48.242913;67.071977
Kenia;Población: 51.39M;https://www.worldometers.info/img/flags/ke-flag.gif;https://www.youtube.com/embed/9k4I5wlzuOI;Capital: Nairobi;0.527612;37.693951
Kirguistán;Población: 6.316M;https://www.worldometers.info/img/flags/kg-flag.gif;https://www.youtube.com/embed/3Dy0fZH4BaM;Capital: Biskek;41.489709;74.429874
Kiribati;Población: 115.847;https://www.worldometers.info/img/flags/kr-flag.gif;https://www.youtube.com/embed/eYBx9vfk9ag;Capital: Tarawa;1.810218;-157.299292
Kuwait;Población: 4.137M;https://www.worldometers.info/img/flags/ku-flag.gif;https://www.youtube.com/embed/SdzYQ-7yFE8;Capital: Kuwait;29.391904;47.964021
Laos;Población: 7.062M;https://www.worldometers.info/img/flags/la-flag.gif;https://www.youtube.com/embed/7aY_seZatlg;Capital: Vientián;19.653640;102.526080
Lesoto;Población: 2.108M;https://www.worldometers.info/img/flags/lt-flag.gif;https://www.youtube.com/embed/PS-Ok2U25gY;Capital: Maseru;-29.575488;28.188854
Letonia;Población: 1.92M;https://www.worldometers.info/img/flags/lg-flag.gif;https://www.youtube.com/embed/kq9gbOHKhZQ;Capital: Riga;57.033858;26.092068
Líbano;Población: 6.849M;https://www.worldometers.info/img/flags/le-flag.gif;https://www.youtube.com/embed/TNYeEuNitGg;Capital: Beirut;34.068932;36.022564
Liberia;Población: 4.819M;https://www.worldometers.info/img/flags/li-flag.gif;https://www.youtube.com/embed/n53WsHO97qo;Capital: Monrovia;6.362292;-9.423005
Libia;Población: 6.679M;https://www.worldometers.info/img/flags/ly-flag.gif;https://www.youtube.com/embed/0tkgSR_gPOo;Capital: Trípoli;27.216366;17.930276
Liechtenstein;Población: 38.749;https://www.worldometers.info/img/flags/ls-flag.gif;https://www.youtube.com/embed/LF9RFB3xvl8;Capital: Vaduz;47.156633;10.396460
Lituania;Población: 2.794M;https://www.worldometers.info/img/flags/lh-flag.gif;https://www.youtube.com/embed/sNKhZyKy260;Capital: Vilna;55.614812;23.640435
Luxemburgo;Población: 613.894;https://www.worldometers.info/img/flags/lu-flag.gif;https://www.youtube.com/embed/bIU9ZQ8fpWo;Capital: Luxemburgo;49.620383;6.108487
Macedonia del Norte;Población: 2.077M;https://www.worldometers.info/img/flags/mk-flag.gif;https://www.youtube.com/embed/NfXlLLQMRm4;Capital: Skopie;41.699688;21.605746
Madagascar;Población: 26.26M;https://www.worldometers.info/img/flags/ma-flag.gif;https://www.youtube.com/embed/_XdvYlglEx8;Capital: Antananarivo;-21.330981;46.095763
Malasia;Población: 31.53M;https://www.worldometers.info/img/flags/my-flag.gif;https://www.youtube.com/embed/RT5iHAdfzmM;Capital: Kuala Lumpur;3.650067;102.238236
Malaui;Población: 18.14M;https://www.worldometers.info/img/flags/mi-flag.gif;https://www.youtube.com/embed/NQM-9gJvHKQ;Capital: Lilongüe;-13.529288;34.313649
Maldivas;Población: 515.696M;https://www.worldometers.info/img/flags/mv-flag.gif;https://www.youtube.com/embed/I4tQPpOwMk8;Capital: Malé;-0.485224;73.154995
Malí;Población: 19.08M;https://www.worldometers.info/img/flags/ml-flag.gif;https://www.youtube.com/embed/m77ptOwQqVM;Capital: Bamako;17.916361;-2.226683
Malta;Población: 514.564;https://www.worldometers.info/img/flags/mt-flag.gif;https://www.youtube.com/embed/Jkaa4d7UiGw;Capital: La Valeta;35.892075;14.442824
Marruecos;Población: 36.03M;https://www.worldometers.info/img/flags/mo-flag.gif;https://www.youtube.com/embed/Mgh4hrV5llM;Capital: Rabat;31.852858;-7.014743
Mauricio;Población: 1.265M;https://www.worldometers.info/img/flags/mp-flag.gif;https://www.youtube.com/embed/b8nM8HQTNWs;Capital: Port-Louis;-20.161364;57.581992
Mauritania;Población: 4.403M;https://www.worldometers.info/img/flags/mr-flag.gif;https://www.youtube.com/embed/ji5MF9xcBAY;Capital: Nuakchot;20.283142;-9.829223
México;Población: 126.2M;https://www.worldometers.info/img/flags/mx-flag.gif;https://www.youtube.com/embed/cDAjDDdPqvA;Capital: Ciudad de México;24.076300;-102.347647
Micronesia;Población: 112.640;https://www.worldometers.info/img/flags/fm-flag.gif;https://www.youtube.com/embed/2FAkFHcDBWE;Capital: Palikir;6.898907;158.550536
Moldavia;Población: 3.546M;https://www.worldometers.info/img/flags/md-flag.gif;https://www.youtube.com/embed/FVYNJRDQckQ;Capital: Chisináu;47.577536;28.091873
Mónaco;Población: 38.682;https://www.worldometers.info/img/flags/mn-flag.gif;https://www.youtube.com/embed/5yRqKH3e2rI;Capital: Mónaco;43.737226;7.419843
Mongolia;Población: 3.17M;https://www.worldometers.info/img/flags/mg-flag.gif;https://www.youtube.com/embed/Ak5p0NlQYc0;Capital: Ulán Bator;46.821404;103.842580
Montenegro;Población: 622.359;https://www.worldometers.info/img/flags/mj-flag.gif;https://www.youtube.com/embed/TBz9k8GGip0;Capital: Podgorica;42.889900;19.048899
Mozambique;Población: 29.5M;https://www.worldometers.info/img/flags/mz-flag.gif;https://www.youtube.com/embed/xxhI73U2BTc;Capital: Maputo;-17.646135;34.339982
Namibia;Población: 2.448M;https://www.worldometers.info/img/flags/wa-flag.gif;https://www.youtube.com/embed/NMwELT7ZakM;Capital: Windhoek;-22.261314;16.986561
Nauru;Población: 12.7;https://www.worldometers.info/img/flags/nr-flag.gif;https://www.youtube.com/embed/XD_8RJGP588;Capital: Yaren;-0.530726;166.934637
Nepal;Población: 28.09M;https://www.worldometers.info/img/flags/np-flag.gif;https://www.youtube.com/embed/nGUCoahupKs;Capital: Katmandú;28.264913;83.779290
Nicaragua;Población: 6.466M;https://www.worldometers.info/img/flags/nu-flag.gif;https://www.youtube.com/embed/mk6NxCHJN8w;Capital: Managua;12.937308;-85.483072
Niger;Población: 22.44M;https://www.worldometers.info/img/flags/ng-flag.gif;https://www.youtube.com/embed/wsA0iOtkRzk;Capital: Niamey;17.176217;9.166933
Nigeria;Población: 195.9M;https://www.worldometers.info/img/flags/ni-flag.gif;https://www.youtube.com/embed/UQIczsnwDKg;Capital: Abuya;9.702287;8.683534
Noruega;Población: 5.43M;https://www.worldometers.info/img/flags/no-flag.gif;https://www.youtube.com/embed/-wz1SYUkxzE;Capital: Oslo;61.931216;8.566260
Nueva Zelanda;Población: 4.886M;https://www.worldometers.info/img/flags/nz-flag.gif;https://www.youtube.com/embed/KHyO36gYZNo;Capital: Wellington;-42.475954;172.471227
Omán;Población: 4.829M;https://www.worldometers.info/img/flags/mu-flag.gif;https://www.youtube.com/embed/lQzXCH1OqmQ;Capital: Mascate;20.502978;56.044175
Países Bajos;Población: 17.28M;https://www.worldometers.info/img/flags/nl-flag.gif;https://www.youtube.com/embed/j6w2WChmPzo;Capital: Ámsterdam;51.992085;5.247727
Pakistán;Población: 212.2M;https://www.worldometers.info/img/flags/pk-flag.gif;https://www.youtube.com/embed/1I5lCthLK-Y;Capital: Islamabad;30.045573;69.260544
Palaos;Población: 17.9;https://www.worldometers.info/img/flags/ps-flag.gif;https://www.youtube.com/embed/GBveABUq1UM;Capital: Melekeok;7.518039;134.313626
Panamá;Población: 4.177M;https://www.worldometers.info/img/flags/pm-flag.gif;https://www.youtube.com/embed/lNsnWz1U_D0;Capital: Panamá;8.534322;-80.276234
Papúa Nueva Guinea;Población: 8.6M;https://www.worldometers.info/img/flags/pp-flag.gif;https://www.youtube.com/embed/xmk_WVSZMKo;Capital: Port Moresby;-6.602061;143.945537
Paraguay;Población: 6.956M;https://www.worldometers.info/img/flags/pa-flag.gif;https://www.youtube.com/embed/_yKAo0b5SEM;Capital: Asinción;-23.578657;-59.541185
Perú;Población: 31.99M;https://www.worldometers.info/img/flags/pe-flag.gif;https://www.youtube.com/embed/e1y_hYtd_L8;Capital: Lima;-10.930504;-74.556194
Polonia;Población: 37.97M;https://www.worldometers.info/img/flags/pl-flag.gif;https://www.youtube.com/embed/wbxc4w3uDVg;Capital: Varsovia;52.739776;17.968099
Portugal;Población: 10.28M;https://www.worldometers.info/img/flags/po-flag.gif;https://www.youtube.com/embed/IDymEDwSRcU;Capital: Lisboa;39.405930;-8.001305
Reino Unido;Población: 66.65M;https://www.worldometers.info/img/flags/uk-flag.gif;https://www.youtube.com/embed/HggM2QtB9Us;Londres: Argel;54.951094;-2.991171
República Centroafricana;Población: 4.666M;https://www.worldometers.info/img/flags/ct-flag.gif;https://www.youtube.com/embed/Ugbi6y0i_Qo;Capital: Bangui;6.619645;18.037153
República Checa;Población: 10.69M;https://www.worldometers.info/img/flags/ez-flag.gif;https://www.youtube.com/embed/xg3STXnurGY;Capital: Praga;49.687941;14.672919
República del Congo;Población: 5.244M;https://www.worldometers.info/img/flags/cg-flag.gif;https://www.youtube.com/embed/j-5KB6uzkXg;Capital: Brazzaville;-0.949180;14.930328
República Democrática del Congo;Población: 84.07M;https://www.worldometers.info/img/flags/congo-flag.gif;https://www.youtube.com/embed/sYFtETTto7s;Capital: Kinsasa;-3.032132;24.365278
República Dominicana;Población: 10.63M;https://www.worldometers.info/img/flags/dr-flag.gif;https://www.youtube.com/embed/mGgsLyx7gq0;Capital: Santo Domingo;18.989234;-70.179697
República Sudafricana;Población: 57.78M;https://www.worldometers.info/img/flags/sf-flag.gif;https://www.youtube.com/embed/2tdZobfB6mM;Capital: Bloemfontein;-30.717228;24.641993
Ruanda;Población: 12.3M;https://www.worldometers.info/img/flags/rw-flag.gif;https://www.youtube.com/embed/iHYVd4nVIWA;Capital: Kigali;-2.025631;30.060245
Rumania;Población: 19.41M;https://www.worldometers.info/img/flags/ro-flag.gif;https://www.youtube.com/embed/SPdqtfY2A5k;Capital: Bucarest;45.636036;22.894950
Rusia;Población: 144.5M;https://www.worldometers.info/img/flags/rs-flag.gif;https://www.youtube.com/embed/1D0OeMEOoNg;Capital: Moscú;61.974400;92.504325
Samoa;Población: 196.1M;https://www.worldometers.info/img/flags/ws-flag.gif;https://www.youtube.com/embed/KOOWo0UhuDg;Capital: Apia;-13.636441;-172.424632
San Cristóbal y Nieves;Población: 52.441M;https://www.worldometers.info/img/flags/sc-flag.gif;https://www.youtube.com/embed/pfU5lOJ05io;Capital: Basseterre;17.301858;-62.720030
San Marino;Población: 33.785M;https://www.worldometers.info/img/flags/sm-flag.gif;https://www.youtube.com/embed/ll-wPMWXa3c;Capital: San Marino;43.935870;12.451838
San Vicente y las Granadinas;Población: 110.2M;https://www.worldometers.info/img/flags/vc-flag.gif;https://www.youtube.com/embed/wLPyHy3U0MM;Capital: Kingstown;13.275912;-61.217829
Santa Lucía;Población: 181.889M;https://www.worldometers.info/img/flags/st-flag.gif;https://www.youtube.com/embed/3a76vt-lFCE;Capital: Castries;13.844080;-61.002273
Santo Tomé y Príncipe;Población: 211.0M;https://www.worldometers.info/img/flags/tp-flag.gif;https://www.youtube.com/embed/0fN0UTcmJa8;Capital: Santo Tomé;0.211864;6.585524
Senegal;Población: 15.85M;https://www.worldometers.info/img/flags/sg-flag.gif;https://www.youtube.com/embed/uAe1jVsMTRo;Capital: Dakar;14.222911;-14.894032
Serbia;Población: 6.982M;https://www.worldometers.info/img/flags/ri-flag.gif;https://www.youtube.com/embed/GHHrir-f8hU;Capital: Belgrado;44.122067;20.556911
Seychelles;Población: 96.762M;https://www.worldometers.info/img/flags/se-flag.gif;https://www.youtube.com/embed/Ix-zdO8W7QA;Capital: Victoria;-4.532994;55.423944
Sierra Leona;Población: 7.65M;https://www.worldometers.info/img/flags/sl-flag.gif;https://www.youtube.com/embed/H1CUZdldoQw;Capital: Freetown;8.557129;-11.722715
Singapur;Población: 5.639M;https://www.worldometers.info/img/flags/sn-flag.gif;https://www.youtube.com/embed/geHcuoY2o2Q;Capital: Singapur;1.356545;103.871628
Siria;Población: 16.91M;https://www.worldometers.info/img/flags/sy-flag.gif;https://www.youtube.com/embed/uGcOaqVZ1C8;Capital: Damasco;35.056001;38.588457
Somalia;Población: 15.01M;https://www.worldometers.info/img/flags/so-flag.gif;https://www.youtube.com/embed/GOLPLdzm0Ik;Capital: Mogadiscio;2.814098;44.813360
Sri Lanka;Población: 21.67M;https://www.worldometers.info/img/flags/ce-flag.gif;https://www.youtube.com/embed/tWlYbe3bMSE;Capital: Sri Jayewardenepura y Colombo;7.615817;80.481783
Suazilandia;Población: 1.136M;https://www.worldometers.info/img/flags/wz-flag.gif;https://www.youtube.com/embed/PHvgxPpXUVw;Capital: Babane y Lobamba;-26.572222;31.439525
Sudán;Población: 41.8M;https://www.worldometers.info/img/flags/su-flag.gif;https://www.youtube.com/embed/fIwQYjyLSLU;Capital: Jartum;16.230838;29.784989
Sudán del Sur;Población: 10.98M;https://www.worldometers.info/img/flags/od-flag.gif;https://www.youtube.com/embed/Js4J3Vbo1U0;Capital: Yuba;7.808188;29.919755
Suecia;Población: 10.23M;https://www.worldometers.info/img/flags/sw-flag.gif;https://www.youtube.com/embed/lcA12CJrNsc;Capital: Estocolmo;64.579546;16.873664
Suiza;Población: 8.57M;https://www.worldometers.info/img/flags/sz-flag.gif;https://www.youtube.com/embed/q5luXssVpjI;Capital: Berna;46.821203;7.857363
Surinam;Población: 575.991M;https://www.worldometers.info/img/flags/ns-flag.gif;https://www.youtube.com/embed/sHFsJrBtcAc;Capital: Paramaribo;4.146484;-55.993838
Tailandia;Población: 69.43M;https://www.worldometers.info/img/flags/th-flag.gif;https://www.youtube.com/embed/3zjJx49W4Kk;Capital: Bangkok;16.543020;100.415666
Tanzania;Población: 56.32M;https://www.worldometers.info/img/flags/tz-flag.gif;https://www.youtube.com/embed/x5rz-dhu0Us;Capital: Dodoma;-6.379824;35.461418
Tayikistán;Población: 9.101M;https://www.worldometers.info/img/flags/ti-flag.gif;https://www.youtube.com/embed/DWoVakjhExE;Capital: Dusambé;38.496676;70.876184
Timor Oriental;Población: 1.268M;https://www.worldometers.info/img/flags/tt-flag.gif;https://www.youtube.com/embed/Y5IAGjRbTI8;Capital: Dili;-8.554565;126.018685
Togo;Población: 7.889M;https://www.worldometers.info/img/flags/to-flag.gif;https://www.youtube.com/embed/CGCmxwpl80I;Capital: Lomé;8.584045;1.065441
Tonga;Población: 103.197M;https://www.worldometers.info/img/flags/tn-flag.gif;https://www.youtube.com/embed/5MYgUPYaOk8;Capital: Nukualofa;-21.108974;-175.205032
Trinidad y Tobago;Población: 1.39M;https://www.worldometers.info/img/flags/td-flag.gif;https://www.youtube.com/embed/eI11y52wsz0;Capital: Puerto España;10.467900;-61.141971
Túnez;Población: 11.47M;https://www.worldometers.info/img/flags/ts-flag.gif;https://www.youtube.com/embed/D9wr1ghh7Us;Capital: Túnez;34.089411;9.481744
Turkmenistán;Población: 5.8M;https://www.worldometers.info/img/flags/tx-flag.gif;https://www.youtube.com/embed/Gt3xa31QiDE;Capital: Asjabad;38.980316;59.549034
Turquía;Población: 82.0M;https://www.worldometers.info/img/flags/tu-flag.gif;https://www.youtube.com/embed/BsnIzAoWa00;Capital: Ankara;39.015280;35.636420
Tuvalu;Población: 11.5M;https://www.worldometers.info/img/flags/tv-flag.gif;https://www.youtube.com/embed/-Hi1Jlmxfjk;Capital: Fongafale;-8.488109;179.261076
Ucrania;Población: 41.98M;https://www.worldometers.info/img/flags/up-flag.gif;https://www.youtube.com/embed/9L9WzgBgm50;Capital: Kiez;49.062544;31.439304
Uganda;Población: 42.72M;https://www.worldometers.info/img/flags/ug-flag.gif;https://www.youtube.com/embed/ONBF5OlSv-8;Capital: Kampala;1.586765;32.563977
Uruguay;Población: 3.449M;https://www.worldometers.info/img/flags/uy-flag.gif;https://www.youtube.com/embed/12-sxR2FcBs;Capital: Montevideo;-32.776245;-56.171109
Uzbekistán;Población: 32.96M;https://www.worldometers.info/img/flags/uz-flag.gif;https://www.youtube.com/embed/G1GnAIMMN04;Capital: Taskent;42.148120;63.543340
Vanuatu;Población: 292.68M;https://www.worldometers.info/img/flags/nh-flag.gif;https://www.youtube.com/embed/JJzAYgUQib8;Capital: Port Vila;-15.253838;166.739619
Venezuela;Población: 28.87M;https://www.worldometers.info/img/flags/ve-flag.gif;https://www.youtube.com/embed/usyDbeY-2_w;Capital: Caracas;7.138553;-66.562680
Vietnam;Población: 95.54M;https://www.worldometers.info/img/flags/vm-flag.gif;https://www.youtube.com/embed/UqX8Tt-hjfw;Capital: Hanói;14.917533;107.149509
Yemen;Población: 28.5M;https://www.worldometers.info/img/flags/ym-flag.gif;https://www.youtube.com/embed/UGTNHm9edmg;Capital: Saná;15.721397;47.356217
Yibuti;Población: 958.920M;https://www.worldometers.info/img/flags/dj-flag.gif;https://www.youtube.com/embed/otktkbFIxrY;Capital: Yibuti;11.761691;42.594223
Zambia;Población: 17.35M;https://www.worldometers.info/img/flags/za-flag.gif;https://www.youtube.com/embed/5qhGJ5jdOCc;Capital: Lusaka;-13.379353;27.269986
Zimbabue;Población: 14.439M;https://www.worldometers.info/img/flags/zi-flag.gif;https://www.youtube.com/embed/iEDqgD5HuAg;Capital: Harare;-18.877379;29.655623